{
  "PCAPredictResult" : {
    "Items":[
      {
        "IsCorrect":true,
        "IsDirectDebitCapable":true,
        "StatusInformation":"CautiousOK",
        "CorrectedSortCode":"000099",
        "CorrectedAccountNumber":"12345678",
        "IBAN":"GB27NWBK00009912345678",
        "Bank":"TEST BANK PLC PLC",
        "BankBIC":"NWBKGB21",
        "Branch":"Worcester",
        "BranchBIC":"18R",
        "ContactAddressLine1":"2 High Street",
        "ContactAddressLine2":"Smallville",
        "ContactPostTown":"Worcester",
        "ContactPostcode":"WR2 6NJ",
        "ContactPhone":"01234 456789",
        "ContactFax":"",
        "FasterPaymentsSupported":false,
        "CHAPSSupported":true
      }
    ]
  }
}
